^D:\MOJE DOKUMENTY\VISUAL STUDIO 2010\PROJECTS\DHUET_PROJEKT\DHUET_PROJEKT\DEBUG\COBIEKT.OBJ|D:\MOJE DOKUMENTY\VISUAL STUDIO 2010\PROJECTS\DHUET_PROJEKT\DHUET_PROJEKT\DEBUG\DHUET_PROJEKT.EXE.EMBED.MANIFEST.RES|D:\MOJE DOKUMENTY\VISUAL STUDIO 2010\PROJECTS\DHUET_PROJEKT\DHUET_PROJEKT\DEBUG\DHUET_PROJEKT.OBJ
D:\MOJE DOKUMENTY\VISUAL STUDIO 2010\PROJECTS\DHUET_PROJEKT\DEBUG\DHUET_PROJEKT.ILK
D:\MOJE DOKUMENTY\VISUAL STUDIO 2010\PROJECTS\DHUET_PROJEKT\DEBUG\DHUET_PROJEKT.EXE
D:\MOJE DOKUMENTY\VISUAL STUDIO 2010\PROJECTS\DHUET_PROJEKT\DHUET_PROJEKT\DEBUG\DHUET_PROJEKT.EXE.INTERMEDIATE.MANIFEST
D:\MOJE DOKUMENTY\VISUAL STUDIO 2010\PROJECTS\DHUET_PROJEKT\DEBUG\DHUET_PROJEKT.PDB
^E:\DHUET_PROJEKT\DHUET_PROJEKT\DEBUG\COBIEKT.OBJ|E:\DHUET_PROJEKT\DHUET_PROJEKT\DEBUG\DHUET_PROJEKT.EXE.EMBED.MANIFEST.RES|E:\DHUET_PROJEKT\DHUET_PROJEKT\DEBUG\DHUET_PROJEKT.OBJ
E:\DHUET_PROJEKT\DEBUG\DHUET_PROJEKT.ILK
E:\DHUET_PROJEKT\DEBUG\DHUET_PROJEKT.EXE
E:\DHUET_PROJEKT\DHUET_PROJEKT\DEBUG\DHUET_PROJEKT.EXE.INTERMEDIATE.MANIFEST
E:\DHUET_PROJEKT\DEBUG\DHUET_PROJEKT.PDB
^G:\DHUET_PROJEKT\DHUET_PROJEKT\DEBUG\COBIEKT.OBJ|G:\DHUET_PROJEKT\DHUET_PROJEKT\DEBUG\DHUET_PROJEKT.EXE.EMBED.MANIFEST.RES|G:\DHUET_PROJEKT\DHUET_PROJEKT\DEBUG\DHUET_PROJEKT.OBJ
G:\DHUET_PROJEKT\DEBUG\DHUET_PROJEKT.ILK
G:\DHUET_PROJEKT\DEBUG\DHUET_PROJEKT.EXE
G:\DHUET_PROJEKT\DHUET_PROJEKT\DEBUG\DHUET_PROJEKT.EXE.INTERMEDIATE.MANIFEST
G:\DHUET_PROJEKT\DEBUG\DHUET_PROJEKT.PDB
^I:\DHUET_PROJEKT\DHUET_PROJEKT\DEBUG\COBIEKT.OBJ|I:\DHUET_PROJEKT\DHUET_PROJEKT\DEBUG\DHUET_PROJEKT.EXE.EMBED.MANIFEST.RES|I:\DHUET_PROJEKT\DHUET_PROJEKT\DEBUG\DHUET_PROJEKT.OBJ
I:\DHUET_PROJEKT\DEBUG\DHUET_PROJEKT.ILK
I:\DHUET_PROJEKT\DEBUG\DHUET_PROJEKT.EXE
I:\DHUET_PROJEKT\DHUET_PROJEKT\DEBUG\DHUET_PROJEKT.EXE.INTERMEDIATE.MANIFEST
I:\DHUET_PROJEKT\DEBUG\DHUET_PROJEKT.PDB
^D:\MOJE DOKUMENTY\DHUET_PROJEKT\DHUET_PROJEKT\DEBUG\CBOHATER.OBJ|D:\MOJE DOKUMENTY\DHUET_PROJEKT\DHUET_PROJEKT\DEBUG\CKOLO.OBJ|D:\MOJE DOKUMENTY\DHUET_PROJEKT\DHUET_PROJEKT\DEBUG\COBIEKT.OBJ|D:\MOJE DOKUMENTY\DHUET_PROJEKT\DHUET_PROJEKT\DEBUG\DHUET_PROJEKT.EXE.EMBED.MANIFEST.RES|D:\MOJE DOKUMENTY\DHUET_PROJEKT\DHUET_PROJEKT\DEBUG\DHUET_PROJEKT.OBJ
D:\MOJE DOKUMENTY\DHUET_PROJEKT\DEBUG\DHUET_PROJEKT.ILK
D:\MOJE DOKUMENTY\DHUET_PROJEKT\DEBUG\DHUET_PROJEKT.EXE
D:\MOJE DOKUMENTY\DHUET_PROJEKT\DHUET_PROJEKT\DEBUG\DHUET_PROJEKT.EXE.INTERMEDIATE.MANIFEST
D:\MOJE DOKUMENTY\DHUET_PROJEKT\DEBUG\DHUET_PROJEKT.PDB
^E:\DHUET_PROJEKT1\DHUET_PROJEKT\DEBUG\CBOHATER.OBJ|E:\DHUET_PROJEKT1\DHUET_PROJEKT\DEBUG\CKOLO.OBJ|E:\DHUET_PROJEKT1\DHUET_PROJEKT\DEBUG\COBIEKT.OBJ|E:\DHUET_PROJEKT1\DHUET_PROJEKT\DEBUG\DHUET_PROJEKT.EXE.EMBED.MANIFEST.RES|E:\DHUET_PROJEKT1\DHUET_PROJEKT\DEBUG\DHUET_PROJEKT.OBJ
E:\DHUET_PROJEKT1\DEBUG\DHUET_PROJEKT.ILK
E:\DHUET_PROJEKT1\DEBUG\DHUET_PROJEKT.EXE
E:\DHUET_PROJEKT1\DHUET_PROJEKT\DEBUG\DHUET_PROJEKT.EXE.INTERMEDIATE.MANIFEST
E:\DHUET_PROJEKT1\DEBUG\DHUET_PROJEKT.PDB
^D:\MOJE DOKUMENTY\NAJTRUDNIEJSZA_GRA_SWIATA_FOLDER\DHUET_PROJEKT\DEBUG\CBAZA.OBJ|D:\MOJE DOKUMENTY\NAJTRUDNIEJSZA_GRA_SWIATA_FOLDER\DHUET_PROJEKT\DEBUG\CBOHATER.OBJ|D:\MOJE DOKUMENTY\NAJTRUDNIEJSZA_GRA_SWIATA_FOLDER\DHUET_PROJEKT\DEBUG\CKOLO.OBJ|D:\MOJE DOKUMENTY\NAJTRUDNIEJSZA_GRA_SWIATA_FOLDER\DHUET_PROJEKT\DEBUG\CMONETA.OBJ|D:\MOJE DOKUMENTY\NAJTRUDNIEJSZA_GRA_SWIATA_FOLDER\DHUET_PROJEKT\DEBUG\COBIEKT.OBJ|D:\MOJE DOKUMENTY\NAJTRUDNIEJSZA_GRA_SWIATA_FOLDER\DHUET_PROJEKT\DEBUG\CPOLICJANT.OBJ|D:\MOJE DOKUMENTY\NAJTRUDNIEJSZA_GRA_SWIATA_FOLDER\DHUET_PROJEKT\DEBUG\CPROSTOKAT.OBJ|D:\MOJE DOKUMENTY\NAJTRUDNIEJSZA_GRA_SWIATA_FOLDER\DHUET_PROJEKT\DEBUG\CSERCE.OBJ|D:\MOJE DOKUMENTY\NAJTRUDNIEJSZA_GRA_SWIATA_FOLDER\DHUET_PROJEKT\DEBUG\DHUET_PROJEKT.EXE.EMBED.MANIFEST.RES|D:\MOJE DOKUMENTY\NAJTRUDNIEJSZA_GRA_SWIATA_FOLDER\DHUET_PROJEKT\DEBUG\DHUET_PROJEKT.OBJ
D:\MOJE DOKUMENTY\NAJTRUDNIEJSZA_GRA_SWIATA_FOLDER\DEBUG\DHUET_PROJEKT.ILK
D:\MOJE DOKUMENTY\NAJTRUDNIEJSZA_GRA_SWIATA_FOLDER\DEBUG\DHUET_PROJEKT.EXE
D:\MOJE DOKUMENTY\NAJTRUDNIEJSZA_GRA_SWIATA_FOLDER\DHUET_PROJEKT\DEBUG\DHUET_PROJEKT.EXE.INTERMEDIATE.MANIFEST
D:\MOJE DOKUMENTY\NAJTRUDNIEJSZA_GRA_SWIATA_FOLDER\DEBUG\DHUET_PROJEKT.PDB
