^D:\MOJE DOKUMENTY\VISUAL STUDIO 2010\PROJECTS\DHUET_PROJEKT\DHUET_PROJEKT\DEBUG\DHUET_PROJEKT.EXE.INTERMEDIATE.MANIFEST
C:\WINDOWS\WINDOWSSHELL.MANIFEST
D:\MOJE DOKUMENTY\VISUAL STUDIO 2010\PROJECTS\DHUET_PROJEKT\DHUET_PROJEKT\DEBUG\DHUET_PROJEKT.EXE.EMBED.MANIFEST
^E:\DHUET_PROJEKT\DHUET_PROJEKT\DEBUG\DHUET_PROJEKT.EXE.INTERMEDIATE.MANIFEST
E:\DHUET_PROJEKT\DHUET_PROJEKT\DEBUG\DHUET_PROJEKT.EXE.EMBED.MANIFEST
^G:\DHUET_PROJEKT\DHUET_PROJEKT\DEBUG\DHUET_PROJEKT.EXE.INTERMEDIATE.MANIFEST
C:\WINDOWS\WINDOWSSHELL.MANIFEST
G:\DHUET_PROJEKT\DHUET_PROJEKT\DEBUG\DHUET_PROJEKT.EXE.EMBED.MANIFEST
^I:\DHUET_PROJEKT\DHUET_PROJEKT\DEBUG\DHUET_PROJEKT.EXE.INTERMEDIATE.MANIFEST
C:\WINDOWS\WINDOWSSHELL.MANIFEST
I:\DHUET_PROJEKT\DHUET_PROJEKT\DEBUG\DHUET_PROJEKT.EXE.EMBED.MANIFEST
^D:\MOJE DOKUMENTY\DHUET_PROJEKT\DHUET_PROJEKT\DEBUG\DHUET_PROJEKT.EXE.INTERMEDIATE.MANIFEST
C:\WINDOWS\WINDOWSSHELL.MANIFEST
D:\MOJE DOKUMENTY\DHUET_PROJEKT\DHUET_PROJEKT\DEBUG\DHUET_PROJEKT.EXE.EMBED.MANIFEST
^E:\DHUET_PROJEKT1\DHUET_PROJEKT\DEBUG\DHUET_PROJEKT.EXE.INTERMEDIATE.MANIFEST
C:\WINDOWS\WINDOWSSHELL.MANIFEST
E:\DHUET_PROJEKT1\DHUET_PROJEKT\DEBUG\DHUET_PROJEKT.EXE.EMBED.MANIFEST
^D:\MOJE DOKUMENTY\NAJTRUDNIEJSZA_GRA_SWIATA_FOLDER\DHUET_PROJEKT\DEBUG\DHUET_PROJEKT.EXE.INTERMEDIATE.MANIFEST
C:\WINDOWS\WINDOWSSHELL.MANIFEST
D:\MOJE DOKUMENTY\NAJTRUDNIEJSZA_GRA_SWIATA_FOLDER\DHUET_PROJEKT\DEBUG\DHUET_PROJEKT.EXE.EMBED.MANIFEST
